ARP/project/project_arp/.Xil/Vivado-23884-DESKTOP-DQRH7QF/hw_ila_data_1/zip_work/waveform.vcd
$date
        2024-Dec-17 16:22:19
$end
$version
        Vivado v2021.2 (64-bit)
$end
$timescale
        1ps
$end
$scope module dut $end
$var reg 32 " arp_inst/arp_rx_inst/pc_ip [31:0] $end
$var reg 8 B arp_inst/arp_tx_inst/cnt_byte [7:0] $end
$var reg 8 J arp_inst/arp_rx_inst/cnt_byte [7:0] $end
$var reg 5 R arp_inst/arp_tx_inst/state [4:0] $end
$var reg 48 W arp_inst/arp_rx_inst/pc_mac [47:0] $end
$var reg 5 )" arp_inst/arp_rx_inst/state [4:0] $end
$var reg 3 ." arp_inst/arp_rx_inst/op_1 [3:1] $end
$var reg 4 1" arp_inst/arp_rx_inst/op [11:8] $end
$var reg 8 5" arp_inst/arp_tx_inst/arp_tx_data [7:0] $end
$var reg 1 =" arp_inst/arp_rx_inst/arp_rx_done $end
$var reg 1 >" arp_inst/arp_rx_inst/arp_rx_op $end
$var reg 1 ?" arp_inst/arp_tx_inst/arp_tx_done $end
$var reg 1 @" arp_ctrl_inst/arp_tx_en $end
$var reg 1 A" arp_ctrl_inst/arp_tx_op $end
$var reg 1 B" arp_inst/arp_tx_inst/arp_tx_valid $end
$var reg 1 C" arp_inst/arp_rx_inst/error $end
$var reg 1 D" _TRIGGER $end
$var reg 1 E" _WINDOW $end
$var reg 1 F" _GAP $end
$upscope $end
$enddefinitions $end
#0
$dumpvars
b0 "
b1000100 B
b0 J
b10001 R
b0 W
b1 )"
b0 ."
b0 1"
b0 5"
0="
0>"
0?"
1@"
1A"
1B"
0C"
0D"
1E"
0F"
$end
#1
b1000101 B
b1000001 5"
#2
b1000110 B
b111010 5"
#3
b1000111 B
b1101010 5"
1?"
#4
b1001000 B
b1 R
b110 5"
0?"
#5
b0 B
b10 R
b0 5"
0B"
#6
b1 B
b1010101 5"
1B"
#7
b10 B
#8
b11 B
#9
b100 B
#10
b101 B
#11
b110 B
#12
b111 B
b11 R
#13
b1000 B
b100 R
b11010101 5"
#14
b1001 B
b11111111 5"
#15
b1010 B
#16
b1011 B
#17
b1100 B
#18
b1101 B
#19
b1110 B
b101 R
#20
b1111 B
b0 5"
#21
b10000 B
b10001 5"
#22
b10001 B
b100010 5"
#23
b10010 B
b110011 5"
#24
b10011 B
b1000100 5"
#25
b10100 B
b110 R
b1010101 5"
#26
b10101 B
b1000 5"
#27
b10110 B
b111 R
b110 5"
#28
b10111 B
b0 5"
#29
b11000 B
b1000 R
b1 5"
#30
b11001 B
b1000 5"
#31
b11010 B
b1001 R
b0 5"
#32
b11011 B
b1010 R
b110 5"
#33
b11100 B
b1011 R
b100 5"
#34
b11101 B
b0 5"
#35
b11110 B
b1100 R
b1 5"
#36
b11111 B
b0 5"
#37
b100000 B
b10001 5"
#38
b100001 B
b100010 5"
#39
b100010 B
b110011 5"
#40
b100011 B
b1000100 5"
#41
b100100 B
b1101 R
b1010101 5"
#42
b100101 B
b11000000 5"
#43
b100110 B
b10101000 5"
#44
b100111 B
b0 5"
#45
b101000 B
b1110 R
b11 5"
#46
b101001 B
b0 5"
#47
b101010 B
#48
b101011 B
#49
b101100 B
#50
b101101 B
#51
b101110 B
b1111 R
#52
b101111 B
b11000000 5"
#53
b110000 B
b10101000 5"
#54
b110001 B
b0 5"
#55
b110010 B
b10000 R
b10010001 5"
#56
b110011 B
b0 5"
#57
b110100 B
#58
b110101 B
#59
b110110 B
#60
b110111 B
#61
b111000 B
#62
b111001 B
#63
b111010 B
#64
b111011 B
#65
b111100 B
#66
b111101 B
#67
b111110 B
#68
b111111 B
#69
b1000000 B
#70
b1000001 B
#71
b1000010 B
#72
b1000011 B
#73
b1000100 B
b10001 R
#74
b1000101 B
b1000001 5"
#75
b1000110 B
b111010 5"
#76
b1000111 B
b1101010 5"
1?"
#77
b1001000 B
b1 R
b110 5"
0?"
#78
b0 B
b10 R
b0 5"
0B"
#79
b1 B
b1010101 5"
1B"
#80
b10 B
#81
b11 B
#82
b100 B
#83
b101 B
#84
b110 B
#85
b111 B
b11 R
#86
b1000 B
b100 R
b11010101 5"
#87
b1001 B
b11111111 5"
#88
b1010 B
#89
b1011 B
#90
b1100 B
#91
b1101 B
#92
b1110 B
b101 R
#93
b1111 B
b0 5"
#94
b10000 B
b10001 5"
#95
b10001 B
b100010 5"
#96
b10010 B
b110011 5"
#97
b10011 B
b1000100 5"
#98
b10100 B
b110 R
b1010101 5"
#99
b10101 B
b1000 5"
#100
b10110 B
b111 R
b110 5"
#101
b10111 B
b0 5"
#102
b11000 B
b1000 R
b1 5"
#103
b11001 B
b1000 5"
#104
b11010 B
b1001 R
b0 5"
#105
b11011 B
b1010 R
b110 5"
#106
b11100 B
b1011 R
b100 5"
#107
b11101 B
b0 5"
#108
b11110 B
b1100 R
b1 5"
#109
b11111 B
b0 5"
#110
b100000 B
b10001 5"
#111
b100001 B
b100010 5"
#112
b100010 B
b110011 5"
#113
b100011 B
b1000100 5"
#114
b100100 B
b1101 R
b1010101 5"
#115
b100101 B
b11000000 5"
#116
b100110 B
b10101000 5"
#117
b100111 B
b0 5"
#118
b101000 B
b1110 R
b11 5"
#119
b101001 B
b0 5"
#120
b101010 B
#121
b101011 B
#122
b101100 B
#123
b101101 B
#124
b101110 B
b1111 R
#125
b101111 B
b11000000 5"
#126
b110000 B
b10101000 5"
#127
b110001 B
b0 5"
#128
b110010 B
b10000 R
b10010001 5"
#129
b110011 B
b0 5"
#130
b110100 B
#131
b110101 B
#132
b110110 B
#133
b110111 B
#134
b111000 B
#135
b111001 B
#136
b111010 B
#137
b111011 B
#138
b111100 B
#139
b111101 B
#140
b111110 B
#141
b111111 B
#142
b1000000 B
#143
b1000001 B
#144
b1000010 B
#145
b1000011 B
#146
b1000100 B
b10001 R
#147
b1000101 B
b1000001 5"
#148
b1000110 B
b111010 5"
#149
b1000111 B
b1101010 5"
1?"
#150
b1001000 B
b1 R
b110 5"
0?"
#151
b0 B
b10 R
b0 5"
0B"
#152
b1 B
b1010101 5"
1B"
#153
b10 B
#154
b11 B
#155
b100 B
#156
b101 B
#157
b110 B
#158
b111 B
b11 R
#159
b1000 B
b100 R
b11010101 5"
#160
b1001 B
b11111111 5"
#161
b1010 B
#162
b1011 B
#163
b1100 B
#164
b1101 B
#165
b1110 B
b101 R
#166
b1111 B
b0 5"
#167
b10000 B
b10001 5"
#168
b10001 B
b100010 5"
#169
b10010 B
b110011 5"
#170
b10011 B
b1000100 5"
#171
b10100 B
b110 R
b1010101 5"
#172
b10101 B
b1000 5"
#173
b10110 B
b111 R
b110 5"
#174
b10111 B
b0 5"
#175
b11000 B
b1000 R
b1 5"
#176
b11001 B
b1000 5"
#177
b11010 B
b1001 R
b0 5"
#178
b11011 B
b1010 R
b110 5"
#179
b11100 B
b1011 R
b100 5"
#180
b11101 B
b0 5"
#181
b11110 B
b1100 R
b1 5"
#182
b11111 B
b0 5"
#183
b100000 B
b10001 5"
#184
b100001 B
b100010 5"
#185
b100010 B
b110011 5"
#186
b100011 B
b1000100 5"
#187
b100100 B
b1101 R
b1010101 5"
#188
b100101 B
b11000000 5"
#189
b100110 B
b10101000 5"
#190
b100111 B
b0 5"
#191
b101000 B
b1110 R
b11 5"
#192
b101001 B
b0 5"
#193
b101010 B
#194
b101011 B
#195
b101100 B
#196
b101101 B
#197
b101110 B
b1111 R
#198
b101111 B
b11000000 5"
#199
b110000 B
b10101000 5"
#200
b110001 B
b0 5"
#201
b110010 B
b10000 R
b10010001 5"
#202
b110011 B
b0 5"
#203
b110100 B
#204
b110101 B
#205
b110110 B
#206
b110111 B
#207
b111000 B
#208
b111001 B
#209
b111010 B
#210
b111011 B
#211
b111100 B
#212
b111101 B
#213
b111110 B
#214
b111111 B
#215
b1000000 B
#216
b1000001 B
#217
b1000010 B
#218
b1000011 B
#219
b1000100 B
b10001 R
#220
b1000101 B
b1000001 5"
#221
b1000110 B
b111010 5"
#222
b1000111 B
b1101010 5"
1?"
#223
b1001000 B
b1 R
b110 5"
0?"
#224
b0 B
b10 R
b0 5"
0B"
#225
b1 B
b1010101 5"
1B"
#226
b10 B
#227
b11 B
#228
b100 B
#229
b101 B
#230
b110 B
#231
b111 B
b11 R
#232
b1000 B
b100 R
b11010101 5"
#233
b1001 B
b11111111 5"
#234
b1010 B
#235
b1011 B
#236
b1100 B
#237
b1101 B
#238
b1110 B
b101 R
#239
b1111 B
b0 5"
#240
b10000 B
b10001 5"
#241
b10001 B
b100010 5"
#242
b10010 B
b110011 5"
#243
b10011 B
b1000100 5"
#244
b10100 B
b110 R
b1010101 5"
#245
b10101 B
b1000 5"
#246
b10110 B
b111 R
b110 5"
#247
b10111 B
b0 5"
#248
b11000 B
b1000 R
b1 5"
#249
b11001 B
b1000 5"
#250
b11010 B
b1001 R
b0 5"
#251
b11011 B
b1010 R
b110 5"
#252
b11100 B
b1011 R
b100 5"
#253
b11101 B
b0 5"
#254
b11110 B
b1100 R
b1 5"
#255
b11111 B
b0 5"
#256
b100000 B
b10001 5"
#257
b100001 B
b100010 5"
#258
b100010 B
b110011 5"
#259
b100011 B
b1000100 5"
#260
b100100 B
b1101 R
b1010101 5"
#261
b100101 B
b11000000 5"
#262
b100110 B
b10101000 5"
#263
b100111 B
b0 5"
#264
b101000 B
b1110 R
b11 5"
#265
b101001 B
b0 5"
#266
b101010 B
#267
b101011 B
#268
b101100 B
#269
b101101 B
#270
b101110 B
b1111 R
#271
b101111 B
b11000000 5"
#272
b110000 B
b10101000 5"
#273
b110001 B
b0 5"
#274
b110010 B
b10000 R
b10010001 5"
#275
b110011 B
b0 5"
#276
b110100 B
#277
b110101 B
#278
b110110 B
#279
b110111 B
#280
b111000 B
#281
b111001 B
#282
b111010 B
#283
b111011 B
#284
b111100 B
#285
b111101 B
#286
b111110 B
#287
b111111 B
#288
b1000000 B
#289
b1000001 B
#290
b1000010 B
#291
b1000011 B
#292
b1000100 B
b10001 R
#293
b1000101 B
b1000001 5"
#294
b1000110 B
b111010 5"
#295
b1000111 B
b1101010 5"
1?"
#296
b1001000 B
b1 R
b110 5"
0?"
#297
b0 B
b10 R
b0 5"
0B"
#298
b1 B
b1010101 5"
1B"
#299
b10 B
#300
b11 B
#301
b100 B
#302
b101 B
#303
b110 B
#304
b111 B
b11 R
#305
b1000 B
b100 R
b11010101 5"
#306
b1001 B
b11111111 5"
#307
b1010 B
#308
b1011 B
#309
b1100 B
#310
b1101 B
#311
b1110 B
b101 R
#312
b1111 B
b0 5"
#313
b10000 B
b10001 5"
#314
b10001 B
b100010 5"
#315
b10010 B
b110011 5"
#316
b10011 B
b1000100 5"
#317
b10100 B
b110 R
b1010101 5"
#318
b10101 B
b1000 5"
#319
b10110 B
b111 R
b110 5"
#320
b10111 B
b0 5"
#321
b11000 B
b1000 R
b1 5"
#322
b11001 B
b1000 5"
#323
b11010 B
b1001 R
b0 5"
#324
b11011 B
b1010 R
b110 5"
#325
b11100 B
b1011 R
b100 5"
#326
b11101 B
b0 5"
#327
b11110 B
b1100 R
b1 5"
#328
b11111 B
b0 5"
#329
b100000 B
b10001 5"
#330
b100001 B
b100010 5"
#331
b100010 B
b110011 5"
#332
b100011 B
b1000100 5"
#333
b100100 B
b1101 R
b1010101 5"
#334
b100101 B
b11000000 5"
#335
b100110 B
b10101000 5"
#336
b100111 B
b0 5"
#337
b101000 B
b1110 R
b11 5"
#338
b101001 B
b0 5"
#339
b101010 B
#340
b101011 B
#341
b101100 B
#342
b101101 B
#343
b101110 B
b1111 R
#344
b101111 B
b11000000 5"
#345
b110000 B
b10101000 5"
#346
b110001 B
b0 5"
#347
b110010 B
b10000 R
b10010001 5"
#348
b110011 B
b0 5"
#349
b110100 B
#350
b110101 B
#351
b110110 B
#352
b110111 B
#353
b111000 B
#354
b111001 B
#355
b111010 B
#356
b111011 B
#357
b111100 B
#358
b111101 B
#359
b111110 B
#360
b111111 B
#361
b1000000 B
#362
b1000001 B
#363
b1000010 B
#364
b1000011 B
#365
b1000100 B
b10001 R
#366
b1000101 B
b1000001 5"
#367
b1000110 B
b111010 5"
#368
b1000111 B
b1101010 5"
1?"
#369
b1001000 B
b1 R
b110 5"
0?"
#370
b0 B
b10 R
b0 5"
0B"
#371
b1 B
b1010101 5"
1B"
#372
b10 B
#373
b11 B
#374
b100 B
#375
b101 B
#376
b110 B
#377
b111 B
b11 R
#378
b1000 B
b100 R
b11010101 5"
#379
b1001 B
b11111111 5"
#380
b1010 B
#381
b1011 B
#382
b1100 B
#383
b1101 B
#384
b1110 B
b101 R
#385
b1111 B
b0 5"
#386
b10000 B
b10001 5"
#387
b10001 B
b100010 5"
#388
b10010 B
b110011 5"
#389
b10011 B
b1000100 5"
#390
b10100 B
b110 R
b1010101 5"
#391
b10101 B
b1000 5"
#392
b10110 B
b111 R
b110 5"
#393
b10111 B
b0 5"
#394
b11000 B
b1000 R
b1 5"
#395
b11001 B
b1000 5"
#396
b11010 B
b1001 R
b0 5"
#397
b11011 B
b1010 R
b110 5"
#398
b11100 B
b1011 R
b100 5"
#399
b11101 B
b0 5"
#400
b11110 B
b1100 R
b1 5"
#401
b11111 B
b0 5"
#402
b100000 B
b10001 5"
#403
b100001 B
b100010 5"
#404
b100010 B
b110011 5"
#405
b100011 B
b1000100 5"
#406
b100100 B
b1101 R
b1010101 5"
#407
b100101 B
b11000000 5"
#408
b100110 B
b10101000 5"
#409
b100111 B
b0 5"
#410
b101000 B
b1110 R
b11 5"
#411
b101001 B
b0 5"
#412
b101010 B
#413
b101011 B
#414
b101100 B
#415
b101101 B
#416
b101110 B
b1111 R
#417
b101111 B
b11000000 5"
#418
b110000 B
b10101000 5"
#419
b110001 B
b0 5"
#420
b110010 B
b10000 R
b10010001 5"
#421
b110011 B
b0 5"
#422
b110100 B
#423
b110101 B
#424
b110110 B
#425
b110111 B
#426
b111000 B
#427
b111001 B
#428
b111010 B
#429
b111011 B
#430
b111100 B
#431
b111101 B
#432
b111110 B
#433
b111111 B
#434
b1000000 B
#435
b1000001 B
#436
b1000010 B
#437
b1000011 B
#438
b1000100 B
b10001 R
#439
b1000101 B
b1000001 5"
#440
b1000110 B
b111010 5"
#441
b1000111 B
b1101010 5"
1?"
#442
b1001000 B
b1 R
b110 5"
0?"
#443
b0 B
b10 R
b0 5"
0B"
#444
b1 B
b1010101 5"
1B"
#445
b10 B
#446
b11 B
#447
b100 B
#448
b101 B
#449
b110 B
#450
b111 B
b11 R
#451
b1000 B
b100 R
b11010101 5"
#452
b1001 B
b11111111 5"
#453
b1010 B
#454
b1011 B
#455
b1100 B
#456
b1101 B
#457
b1110 B
b101 R
#458
b1111 B
b0 5"
#459
b10000 B
b10001 5"
#460
b10001 B
b100010 5"
#461
b10010 B
b110011 5"
#462
b10011 B
b1000100 5"
#463
b10100 B
b110 R
b1010101 5"
#464
b10101 B
b1000 5"
#465
b10110 B
b111 R
b110 5"
#466
b10111 B
b0 5"
#467
b11000 B
b1000 R
b1 5"
#468
b11001 B
b1000 5"
#469
b11010 B
b1001 R
b0 5"
#470
b11011 B
b1010 R
b110 5"
#471
b11100 B
b1011 R
b100 5"
#472
b11101 B
b0 5"
#473
b11110 B
b1100 R
b1 5"
#474
b11111 B
b0 5"
#475
b100000 B
b10001 5"
#476
b100001 B
b100010 5"
#477
b100010 B
b110011 5"
#478
b100011 B
b1000100 5"
#479
b100100 B
b1101 R
b1010101 5"
#480
b100101 B
b11000000 5"
#481
b100110 B
b10101000 5"
#482
b100111 B
b0 5"
#483
b101000 B
b1110 R
b11 5"
#484
b101001 B
b0 5"
#485
b101010 B
#486
b101011 B
#487
b101100 B
#488
b101101 B
#489
b101110 B
b1111 R
#490
b101111 B
b11000000 5"
#491
b110000 B
b10101000 5"
#492
b110001 B
b0 5"
#493
b110010 B
b10000 R
b10010001 5"
#494
b110011 B
b0 5"
#495
b110100 B
#496
b110101 B
#497
b110110 B
#498
b110111 B
#499
b111000 B
#500
b111001 B
#501
b111010 B
#502
b111011 B
#503
b111100 B
#504
b111101 B
#505
b111110 B
#506
b111111 B
#507
b1000000 B
#508
b1000001 B
#509
b1000010 B
#510
b1000011 B
#511
b1000100 B
b10001 R
#512
b1000101 B
b1000001 5"
1D"
#513
b1000110 B
b111010 5"
#514
b1000111 B
b1101010 5"
1?"
#515
b1001000 B
b1 R
b110 5"
0?"
#516
b0 B
b10 R
b0 5"
0B"
#517
b1 B
b1010101 5"
1B"
#518
b10 B
#519
b11 B
#520
b100 B
#521
b101 B
#522
b110 B
#523
b111 B
b11 R
#524
b1000 B
b100 R
b11010101 5"
#525
b1001 B
b11111111 5"
#526
b1010 B
#527
b1011 B
#528
b1100 B
#529
b1101 B
#530
b1110 B
b101 R
#531
b1111 B
b0 5"
#532
b10000 B
b10001 5"
#533
b10001 B
b100010 5"
#534
b10010 B
b110011 5"
#535
b10011 B
b1000100 5"
#536
b10100 B
b110 R
b1010101 5"
#537
b10101 B
b1000 5"
#538
b10110 B
b111 R
b110 5"
#539
b10111 B
b0 5"
#540
b11000 B
b1000 R
b1 5"
#541
b11001 B
b1000 5"
#542
b11010 B
b1001 R
b0 5"
#543
b11011 B
b1010 R
b110 5"
#544
b11100 B
b1011 R
b100 5"
#545
b11101 B
b0 5"
#546
b11110 B
b1100 R
b1 5"
#547
b11111 B
b0 5"
#548
b100000 B
b10001 5"
#549
b100001 B
b100010 5"
#550
b100010 B
b110011 5"
#551
b100011 B
b1000100 5"
#552
b100100 B
b1101 R
b1010101 5"
#553
b100101 B
b11000000 5"
#554
b100110 B
b10101000 5"
#555
b100111 B
b0 5"
#556
b101000 B
b1110 R
b11 5"
#557
b101001 B
b0 5"
#558
b101010 B
#559
b101011 B
#560
b101100 B
#561
b101101 B
#562
b101110 B
b1111 R
#563
b101111 B
b11000000 5"
#564
b110000 B
b10101000 5"
#565
b110001 B
b0 5"
#566
b110010 B
b10000 R
b10010001 5"
#567
b110011 B
b0 5"
#568
b110100 B
#569
b110101 B
#570
b110110 B
#571
b110111 B
#572
b111000 B
#573
b111001 B
#574
b111010 B
#575
b111011 B
#576
b111100 B
#577
b111101 B
#578
b111110 B
#579
b111111 B
#580
b1000000 B
#581
b1000001 B
#582
b1000010 B
#583
b1000011 B
#584
b1000100 B
b10001 R
#585
b1000101 B
b1000001 5"
#586
b1000110 B
b111010 5"
#587
b1000111 B
b1101010 5"
1?"
#588
b1001000 B
b1 R
b110 5"
0?"
#589
b0 B
b10 R
b0 5"
0B"
#590
b1 B
b1010101 5"
1B"
#591
b10 B
#592
b11 B
#593
b100 B
#594
b101 B
#595
b110 B
#596
b111 B
b11 R
#597
b1000 B
b100 R
b11010101 5"
#598
b1001 B
b11111111 5"
#599
b1010 B
#600
b1011 B
#601
b1100 B
#602
b1101 B
#603
b1110 B
b101 R
#604
b1111 B
b0 5"
#605
b10000 B
b10001 5"
#606
b10001 B
b100010 5"
#607
b10010 B
b110011 5"
#608
b10011 B
b1000100 5"
#609
b10100 B
b110 R
b1010101 5"
#610
b10101 B
b1000 5"
#611
b10110 B
b111 R
b110 5"
#612
b10111 B
b0 5"
#613
b11000 B
b1000 R
b1 5"
#614
b11001 B
b1000 5"
#615
b11010 B
b1001 R
b0 5"
#616
b11011 B
b1010 R
b110 5"
#617
b11100 B
b1011 R
b100 5"
#618
b11101 B
b0 5"
#619
b11110 B
b1100 R
b1 5"
#620
b11111 B
b0 5"
#621
b100000 B
b10001 5"
#622
b100001 B
b100010 5"
#623
b100010 B
b110011 5"
#624
b100011 B
b1000100 5"
#625
b100100 B
b1101 R
b1010101 5"
#626
b100101 B
b11000000 5"
#627
b100110 B
b10101000 5"
#628
b100111 B
b0 5"
#629
b101000 B
b1110 R
b11 5"
#630
b101001 B
b0 5"
#631
b101010 B
#632
b101011 B
#633
b101100 B
#634
b101101 B
#635
b101110 B
b1111 R
#636
b101111 B
b11000000 5"
#637
b110000 B
b10101000 5"
#638
b110001 B
b0 5"
#639
b110010 B
b10000 R
b10010001 5"
#640
b110011 B
b0 5"
#641
b110100 B
#642
b110101 B
#643
b110110 B
#644
b110111 B
#645
b111000 B
#646
b111001 B
#647
b111010 B
#648
b111011 B
#649
b111100 B
#650
b111101 B
#651
b111110 B
#652
b111111 B
#653
b1000000 B
#654
b1000001 B
#655
b1000010 B
#656
b1000011 B
#657
b1000100 B
b10001 R
#658
b1000101 B
b1000001 5"
#659
b1000110 B
b111010 5"
#660
b1000111 B
b1101010 5"
1?"
#661
b1001000 B
b1 R
b110 5"
0?"
#662
b0 B
b10 R
b0 5"
0B"
#663
b1 B
b1010101 5"
1B"
#664
b10 B
#665
b11 B
#666
b100 B
#667
b101 B
#668
b110 B
#669
b111 B
b11 R
#670
b1000 B
b100 R
b11010101 5"
#671
b1001 B
b11111111 5"
#672
b1010 B
#673
b1011 B
#674
b1100 B
#675
b1101 B
#676
b1110 B
b101 R
#677
b1111 B
b0 5"
#678
b10000 B
b10001 5"
#679
b10001 B
b100010 5"
#680
b10010 B
b110011 5"
#681
b10011 B
b1000100 5"
#682
b10100 B
b110 R
b1010101 5"
#683
b10101 B
b1000 5"
#684
b10110 B
b111 R
b110 5"
#685
b10111 B
b0 5"
#686
b11000 B
b1000 R
b1 5"
#687
b11001 B
b1000 5"
#688
b11010 B
b1001 R
b0 5"
#689
b11011 B
b1010 R
b110 5"
#690
b11100 B
b1011 R
b100 5"
#691
b11101 B
b0 5"
#692
b11110 B
b1100 R
b1 5"
#693
b11111 B
b0 5"
#694
b100000 B
b10001 5"
#695
b100001 B
b100010 5"
#696
b100010 B
b110011 5"
#697
b100011 B
b1000100 5"
#698
b100100 B
b1101 R
b1010101 5"
#699
b100101 B
b11000000 5"
#700
b100110 B
b10101000 5"
#701
b100111 B
b0 5"
#702
b101000 B
b1110 R
b11 5"
#703
b101001 B
b0 5"
#704
b101010 B
#705
b101011 B
#706
b101100 B
#707
b101101 B
#708
b101110 B
b1111 R
#709
b101111 B
b11000000 5"
#710
b110000 B
b10101000 5"
#711
b110001 B
b0 5"
#712
b110010 B
b10000 R
b10010001 5"
#713
b110011 B
b0 5"
#714
b110100 B
#715
b110101 B
#716
b110110 B
#717
b110111 B
#718
b111000 B
#719
b111001 B
#720
b111010 B
#721
b111011 B
#722
b111100 B
#723
b111101 B
#724
b111110 B
#725
b111111 B
#726
b1000000 B
#727
b1000001 B
#728
b1000010 B
#729
b1000011 B
#730
b1000100 B
b10001 R
#731
b1000101 B
b1000001 5"
#732
b1000110 B
b111010 5"
#733
b1000111 B
b1101010 5"
1?"
#734
b1001000 B
b1 R
b110 5"
0?"
#735
b0 B
b10 R
b0 5"
0B"
#736
b1 B
b1010101 5"
1B"
#737
b10 B
#738
b11 B
#739
b100 B
#740
b101 B
#741
b110 B
#742
b111 B
b11 R
#743
b1000 B
b100 R
b11010101 5"
#744
b1001 B
b11111111 5"
#745
b1010 B
#746
b1011 B
#747
b1100 B
#748
b1101 B
#749
b1110 B
b101 R
#750
b1111 B
b0 5"
#751
b10000 B
b10001 5"
#752
b10001 B
b100010 5"
#753
b10010 B
b110011 5"
#754
b10011 B
b1000100 5"
#755
b10100 B
b110 R
b1010101 5"
#756
b10101 B
b1000 5"
#757
b10110 B
b111 R
b110 5"
#758
b10111 B
b0 5"
#759
b11000 B
b1000 R
b1 5"
#760
b11001 B
b1000 5"
#761
b11010 B
b1001 R
b0 5"
#762
b11011 B
b1010 R
b110 5"
#763
b11100 B
b1011 R
b100 5"
#764
b11101 B
b0 5"
#765
b11110 B
b1100 R
b1 5"
#766
b11111 B
b0 5"
#767
b100000 B
b10001 5"
#768
b100001 B
b100010 5"
#769
b100010 B
b110011 5"
#770
b100011 B
b1000100 5"
#771
b100100 B
b1101 R
b1010101 5"
#772
b100101 B
b11000000 5"
#773
b100110 B
b10101000 5"
#774
b100111 B
b0 5"
#775
b101000 B
b1110 R
b11 5"
#776
b101001 B
b0 5"
#777
b101010 B
#778
b101011 B
#779
b101100 B
#780
b101101 B
#781
b101110 B
b1111 R
#782
b101111 B
b11000000 5"
#783
b110000 B
b10101000 5"
#784
b110001 B
b0 5"
#785
b110010 B
b10000 R
b10010001 5"
#786
b110011 B
b0 5"
#787
b110100 B
#788
b110101 B
#789
b110110 B
#790
b110111 B
#791
b111000 B
#792
b111001 B
#793
b111010 B
#794
b111011 B
#795
b111100 B
#796
b111101 B
#797
b111110 B
#798
b111111 B
#799
b1000000 B
#800
b1000001 B
#801
b1000010 B
#802
b1000011 B
#803
b1000100 B
b10001 R
#804
b1000101 B
b1000001 5"
#805
b1000110 B
b111010 5"
#806
b1000111 B
b1101010 5"
1?"
#807
b1001000 B
b1 R
b110 5"
0?"
#808
b0 B
b10 R
b0 5"
0B"
#809
b1 B
b1010101 5"
1B"
#810
b10 B
#811
b11 B
#812
b100 B
#813
b101 B
#814
b110 B
#815
b111 B
b11 R
#816
b1000 B
b100 R
b11010101 5"
#817
b1001 B
b11111111 5"
#818
b1010 B
#819
b1011 B
#820
b1100 B
#821
b1101 B
#822
b1110 B
b101 R
#823
b1111 B
b0 5"
#824
b10000 B
b10001 5"
#825
b10001 B
b100010 5"
#826
b10010 B
b110011 5"
#827
b10011 B
b1000100 5"
#828
b10100 B
b110 R
b1010101 5"
#829
b10101 B
b1000 5"
#830
b10110 B
b111 R
b110 5"
#831
b10111 B
b0 5"
#832
b11000 B
b1000 R
b1 5"
#833
b11001 B
b1000 5"
#834
b11010 B
b1001 R
b0 5"
#835
b11011 B
b1010 R
b110 5"
#836
b11100 B
b1011 R
b100 5"
#837
b11101 B
b0 5"
#838
b11110 B
b1100 R
b1 5"
#839
b11111 B
b0 5"
#840
b100000 B
b10001 5"
#841
b100001 B
b100010 5"
#842
b100010 B
b110011 5"
#843
b100011 B
b1000100 5"
#844
b100100 B
b1101 R
b1010101 5"
#845
b100101 B
b11000000 5"
#846
b100110 B
b10101000 5"
#847
b100111 B
b0 5"
#848
b101000 B
b1110 R
b11 5"
#849
b101001 B
b0 5"
#850
b101010 B
#851
b101011 B
#852
b101100 B
#853
b101101 B
#854
b101110 B
b1111 R
#855
b101111 B
b11000000 5"
#856
b110000 B
b10101000 5"
#857
b110001 B
b0 5"
#858
b110010 B
b10000 R
b10010001 5"
#859
b110011 B
b0 5"
#860
b110100 B
#861
b110101 B
#862
b110110 B
#863
b110111 B
#864
b111000 B
#865
b111001 B
#866
b111010 B
#867
b111011 B
#868
b111100 B
#869
b111101 B
#870
b111110 B
#871
b111111 B
#872
b1000000 B
#873
b1000001 B
#874
b1000010 B
#875
b1000011 B
#876
b1000100 B
b10001 R
#877
b1000101 B
b1000001 5"
#878
b1000110 B
b111010 5"
#879
b1000111 B
b1101010 5"
1?"
#880
b1001000 B
b1 R
b110 5"
0?"
#881
b0 B
b10 R
b0 5"
0B"
#882
b1 B
b1010101 5"
1B"
#883
b10 B
#884
b11 B
#885
b100 B
#886
b101 B
#887
b110 B
#888
b111 B
b11 R
#889
b1000 B
b100 R
b11010101 5"
#890
b1001 B
b11111111 5"
#891
b1010 B
#892
b1011 B
#893
b1100 B
#894
b1101 B
#895
b1110 B
b101 R
#896
b1111 B
b0 5"
#897
b10000 B
b10001 5"
#898
b10001 B
b100010 5"
#899
b10010 B
b110011 5"
#900
b10011 B
b1000100 5"
#901
b10100 B
b110 R
b1010101 5"
#902
b10101 B
b1000 5"
#903
b10110 B
b111 R
b110 5"
#904
b10111 B
b0 5"
#905
b11000 B
b1000 R
b1 5"
#906
b11001 B
b1000 5"
#907
b11010 B
b1001 R
b0 5"
#908
b11011 B
b1010 R
b110 5"
#909
b11100 B
b1011 R
b100 5"
#910
b11101 B
b0 5"
#911
b11110 B
b1100 R
b1 5"
#912
b11111 B
b0 5"
#913
b100000 B
b10001 5"
#914
b100001 B
b100010 5"
#915
b100010 B
b110011 5"
#916
b100011 B
b1000100 5"
#917
b100100 B
b1101 R
b1010101 5"
#918
b100101 B
b11000000 5"
#919
b100110 B
b10101000 5"
#920
b100111 B
b0 5"
#921
b101000 B
b1110 R
b11 5"
#922
b101001 B
b0 5"
#923
b101010 B
#924
b101011 B
#925
b101100 B
#926
b101101 B
#927
b101110 B
b1111 R
#928
b101111 B
b11000000 5"
#929
b110000 B
b10101000 5"
#930
b110001 B
b0 5"
#931
b110010 B
b10000 R
b10010001 5"
#932
b110011 B
b0 5"
#933
b110100 B
#934
b110101 B
#935
b110110 B
#936
b110111 B
#937
b111000 B
#938
b111001 B
#939
b111010 B
#940
b111011 B
#941
b111100 B
#942
b111101 B
#943
b111110 B
#944
b111111 B
#945
b1000000 B
#946
b1000001 B
#947
b1000010 B
#948
b1000011 B
#949
b1000100 B
b10001 R
#950
b1000101 B
b1000001 5"
#951
b1000110 B
b111010 5"
#952
b1000111 B
b1101010 5"
1?"
#953
b1001000 B
b1 R
b110 5"
0?"
#954
b0 B
b10 R
b0 5"
0B"
#955
b1 B
b1010101 5"
1B"
#956
b10 B
#957
b11 B
#958
b100 B
#959
b101 B
#960
b110 B
#961
b111 B
b11 R
#962
b1000 B
b100 R
b11010101 5"
#963
b1001 B
b11111111 5"
#964
b1010 B
#965
b1011 B
#966
b1100 B
#967
b1101 B
#968
b1110 B
b101 R
#969
b1111 B
b0 5"
#970
b10000 B
b10001 5"
#971
b10001 B
b100010 5"
#972
b10010 B
b110011 5"
#973
b10011 B
b1000100 5"
#974
b10100 B
b110 R
b1010101 5"
#975
b10101 B
b1000 5"
#976
b10110 B
b111 R
b110 5"
#977
b10111 B
b0 5"
#978
b11000 B
b1000 R
b1 5"
#979
b11001 B
b1000 5"
#980
b11010 B
b1001 R
b0 5"
#981
b11011 B
b1010 R
b110 5"
#982
b11100 B
b1011 R
b100 5"
#983
b11101 B
b0 5"
